Wei-chen Huang - Sentiment Analysis
…
original_books <- austen_books() %>%
  group_by(book) %>%
  mutate(linenumber = row_number(),
         chapter = cumsum(str_detect(text, 
                                     regex("^chapter [\\divxlc]",
                                           ignore_case = TRUE)))) %>%
  ungroup()

tidy_books <- original_books %>%
  unnest_tokens(word, text)
tidy_books

# A tibble: 725,055 × 4
   book                linenumber chapter word       
   <fct>                    <int>   <int> <chr>      
 1 Sense & Sensibility          1       0 sense      
 2 Sense & Sensibility          1       0 and        
 3 Sense & Sensibility          1       0 sensibility
 4 Sense & Sensibility          3       0 by         
 5 Sense & Sensibility          3       0 jane       
 6 Sense & Sensibility          3       0 austen     
 7 Sense & Sensibility          5       0 1811       
 8 Sense & Sensibility         10       1 chapter    
 9 Sense & Sensibility         10       1 1          
10 Sense & Sensibility         13       1 the        
# … with 725,045 more rows
…
nrc_surprise <- get_sentiments("nrc") %>%
  filter(sentiment == "surprise")
tidy_books %>%
  filter(book == "Emma") %>%
  inner_join(nrc_surprise) %>%
  count(word, sort = TRUE)

Joining with `by = join_by(word)`

# A tibble: 161 × 2
   word         n
   <chr>    <int>
 1 hope       143
 2 deal        92
 3 spirits     64
 4 marry       63
 5 leave       58
 6 feeling     56
 7 smile       44
 8 pleasant    41
 9 fortune     39
10 obliging    34
# … with 151 more rows
…
