Wei-chen Huang - Assignment 3
…
Assignment 3

── Attaching packages ─────────────────────────────────────── tidyverse 1.3.2 ──
✔ ggplot2 3.4.0     ✔ purrr   1.0.1
✔ tibble  3.1.8     ✔ dplyr   1.1.0
✔ tidyr   1.3.0     ✔ stringr 1.5.0
✔ readr   2.1.3     ✔ forcats 1.0.0
── Conflicts ────────────────────────────────────────── tidyverse_conflicts() ──
✖ dplyr::filter() masks stats::filter()
✖ dplyr::lag()    masks stats::lag()

# A tibble: 1,690 × 8
   Tondu female   DPP   age income   edu Taiwanese Econ_worse
   <dbl>  <dbl> <dbl> <dbl>  <dbl> <dbl>     <dbl>      <dbl>
 1     3      1     0    59    8       4         1          0
 2     5      1     0    39    7       5         0          0
 3     3      0     0    63    8       5         0          1
 4     5      0     0    55    5       2         1          1
 5     9      1     0    76    5.5     1         0          0
 6     4      1     1    64    9       2         1          1
 7     9      0     0    75    1       1         0          1
 8     6      1     0    54   10       5         1          1
 9     9      1     0    64    2       1         1          1
10     9      0     0    59    5.5     1         0          1
# … with 1,680 more rows
…
