Wei-chen Huang - Assignment 2
…
    Govt_dont_care : double
    highincome     : double
    votekmt        : double
    votekmt_nm     : double
    Blue           : double
    Green          : double
    No_Party       : double
    voteblue       : double
    voteblue_nm    : double
    votedpp_1      : double
    votekmt_1      : double
  >
>[2]>
[[1]]
# A tibble: 868 × 54
   District     Sex     Age     Edu     Arear   Career  Career8 Ethnic  Party   
   <dbl+lbl>    <dbl+l> <dbl+l> <dbl+l> <dbl+l> <dbl+l> <dbl+l> <dbl+l> <dbl+lb>
 1 201 [Yi Lan… 1 [Mal… 5 [Abo… 5 [Abo… 1 [Tai… 1 [Hig… 1 [Civ… 2 [Bot…  3 [Lea…
 2 201 [Yi Lan… 1 [Mal… 4 [50-… 2 [Jun… 1 [Tai… 4 [WOR… 4 [Lab… 1 [Tai… 25 [Neu…
 3 201 [Yi Lan… 1 [Mal… 5 [Abo… 1 [Bel… 1 [Tai… 4 [WOR… 4 [Lab… 2 [Bot… 25 [Neu…
 4 201 [Yi Lan… 1 [Mal… 4 [50-… 1 [Bel… 1 [Tai… 3 [FAR… 5 [FAR… 2 [Bot… 25 [Neu…
 5 201 [Yi Lan… 1 [Mal… 5 [Abo… 1 [Bel… 1 [Tai… 3 [FAR… 5 [FAR… 1 [Tai…  6 [Som…
 6 201 [Yi Lan… 1 [Mal… 5 [Abo… 4 [Col… 1 [Tai… 2 [Low… 1 [Civ… 2 [Bot… 25 [Neu…
 7 201 [Yi Lan… 1 [Mal… 3 [40-… 5 [Abo… 1 [Tai… 4 [WOR… 4 [Lab… 1 [Tai… 23 [Lea…
 8 401 [Hsinch… 1 [Mal… 3 [40-… 5 [Abo… 2 [Tao… 1 [Hig… 2 [Man… 1 [Tai…  7 [Lea…
 9 401 [Hsinch… 1 [Mal… 1 [20-… 3 [Sen… 2 [Tao… 2 [Low… 3 [CLE… 2 [Bot… 25 [Neu…
10 401 [Hsinch… 1 [Mal… 5 [Abo… 1 [Bel… 2 [Tao… 3 [FAR… 5 [FAR… 1 [Tai…  1 [Str…
# … with 858 more rows, and 45 more variables: PartyID <dbl+lbl>, Tondu <fct>,
#   Tondu3 <dbl+lbl>, nI2 <dbl+lbl>, votetsai <dbl>, green <dbl>,
#   votetsai_nm <dbl>, votetsai_all <dbl>, Independence <dbl>,
#   Unification <dbl>, sq <dbl>, Taiwanese <dbl>, edu <dbl>, female <dbl>,
#   whitecollar <dbl>, lowincome <dbl>, income <dbl>, income_nm <dbl>,
#   age <dbl>, KMT <dbl>, DPP <dbl>, npp <dbl>, noparty <dbl>, pfp <dbl>,
#   South <dbl>, north <dbl>, Minnan_father <dbl>, Mainland_father <dbl>, …

[[2]]
# A tibble: 822 × 54
   District     Sex     Age     Edu     Arear   Career  Career8 Ethnic  Party   
   <dbl+lbl>    <dbl+l> <dbl+l> <dbl+l> <dbl+l> <dbl+l> <dbl+l> <dbl+l> <dbl+lb>
 1 201 [Yi Lan… 2 [Fem… 4 [50-… 4 [Col… 1 [Tai… 1 [Hig… 1 [Civ… 1 [Tai… 25 [Neu…
 2 201 [Yi Lan… 2 [Fem… 2 [30-… 5 [Abo… 1 [Tai… 2 [Low… 3 [CLE… 2 [Bot… 25 [Neu…
 3 201 [Yi Lan… 2 [Fem… 5 [Abo… 1 [Bel… 1 [Tai… 3 [FAR… 5 [FAR… 9 [Nor… 25 [Neu…
 4 201 [Yi Lan… 2 [Fem… 5 [Abo… 2 [Jun… 1 [Tai… 2 [Low… 7 [Hou… 1 [Tai…  6 [Som…
 5 201 [Yi Lan… 2 [Fem… 4 [50-… 5 [Abo… 1 [Tai… 1 [Hig… 2 [Man… 1 [Tai… 24 [Som…
 6 201 [Yi Lan… 2 [Fem… 5 [Abo… 1 [Bel… 1 [Tai… 4 [WOR… 4 [Lab… 1 [Tai… 25 [Neu…
 7 201 [Yi Lan… 2 [Fem… 1 [20-… 2 [Jun… 1 [Tai… 5 [Oth… 7 [Hou… 1 [Tai…  5 [Str…
 8 201 [Yi Lan… 2 [Fem… 5 [Abo… 1 [Bel… 1 [Tai… 5 [Oth… 7 [Hou… 2 [Bot… 25 [Neu…
 9 201 [Yi Lan… 2 [Fem… 3 [40-… 5 [Abo… 1 [Tai… 4 [WOR… 7 [Hou… 1 [Tai…  3 [Lea…
10 201 [Yi Lan… 2 [Fem… 4 [50-… 5 [Abo… 1 [Tai… 1 [Hig… 2 [Man… 2 [Bot…  3 [Lea…
# … with 812 more rows, and 45 more variables: PartyID <dbl+lbl>, Tondu <fct>,
#   Tondu3 <dbl+lbl>, nI2 <dbl+lbl>, votetsai <dbl>, green <dbl>,
#   votetsai_nm <dbl>, votetsai_all <dbl>, Independence <dbl>,
#   Unification <dbl>, sq <dbl>, Taiwanese <dbl>, edu <dbl>, female <dbl>,
#   whitecollar <dbl>, lowincome <dbl>, income <dbl>, income_nm <dbl>,
#   age <dbl>, KMT <dbl>, DPP <dbl>, npp <dbl>, noparty <dbl>, pfp <dbl>,
#   South <dbl>, north <dbl>, Minnan_father <dbl>, Mainland_father <dbl>, …
…
    Govt_dont_care : double
    highincome     : double
    votekmt        : double
    votekmt_nm     : double
    Blue           : double
    Green          : double
    No_Party       : double
    voteblue       : double
    voteblue_nm    : double
    votedpp_1      : double
    votekmt_1      : double
  >
>[2]>
[[1]]
# A tibble: 1,099 × 54
   District     Sex     Age     Edu     Arear   Career  Career8 Ethnic  Party   
   <dbl+lbl>    <dbl+l> <dbl+l> <dbl+l> <dbl+l> <dbl+l> <dbl+l> <dbl+l> <dbl+lb>
 1 201 [Yi Lan… 2 [Fem… 4 [50-… 4 [Col… 1 [Tai… 1 [Hig… 1 [Civ… 1 [Tai… 25 [Neu…
 2 201 [Yi Lan… 2 [Fem… 2 [30-… 5 [Abo… 1 [Tai… 2 [Low… 3 [CLE… 2 [Bot… 25 [Neu…
 3 201 [Yi Lan… 1 [Mal… 5 [Abo… 5 [Abo… 1 [Tai… 1 [Hig… 1 [Civ… 2 [Bot…  3 [Lea…
 4 201 [Yi Lan… 1 [Mal… 4 [50-… 2 [Jun… 1 [Tai… 4 [WOR… 4 [Lab… 1 [Tai… 25 [Neu…
 5 201 [Yi Lan… 2 [Fem… 5 [Abo… 1 [Bel… 1 [Tai… 3 [FAR… 5 [FAR… 9 [Nor… 25 [Neu…
 6 201 [Yi Lan… 1 [Mal… 5 [Abo… 1 [Bel… 1 [Tai… 4 [WOR… 4 [Lab… 2 [Bot… 25 [Neu…
 7 201 [Yi Lan… 2 [Fem… 4 [50-… 5 [Abo… 1 [Tai… 1 [Hig… 2 [Man… 1 [Tai… 24 [Som…
 8 201 [Yi Lan… 2 [Fem… 5 [Abo… 1 [Bel… 1 [Tai… 4 [WOR… 4 [Lab… 1 [Tai… 25 [Neu…
 9 201 [Yi Lan… 1 [Mal… 4 [50-… 1 [Bel… 1 [Tai… 3 [FAR… 5 [FAR… 2 [Bot… 25 [Neu…
10 201 [Yi Lan… 2 [Fem… 5 [Abo… 1 [Bel… 1 [Tai… 5 [Oth… 7 [Hou… 2 [Bot… 25 [Neu…
# … with 1,089 more rows, and 45 more variables: PartyID <dbl+lbl>,
#   Tondu <fct>, Tondu3 <dbl+lbl>, nI2 <dbl+lbl>, votetsai <dbl>, green <dbl>,
#   votetsai_nm <dbl>, votetsai_all <dbl>, Independence <dbl>,
#   Unification <dbl>, sq <dbl>, Taiwanese <dbl>, edu <dbl>, female <dbl>,
#   whitecollar <dbl>, lowincome <dbl>, income <dbl>, income_nm <dbl>,
#   age <dbl>, KMT <dbl>, DPP <dbl>, npp <dbl>, noparty <dbl>, pfp <dbl>,
#   South <dbl>, north <dbl>, Minnan_father <dbl>, Mainland_father <dbl>, …

[[2]]
# A tibble: 591 × 54
   District      Sex     Age     Edu     Arear   Career  Career8 Ethnic  Party  
   <dbl+lbl>     <dbl+l> <dbl+l> <dbl+l> <dbl+l> <dbl+l> <dbl+l> <dbl+l> <dbl+l>
 1 201 [Yi Lan … 2 [Fem… 5 [Abo… 2 [Jun… 1 [Tai… 2 [Low… 7 [Hou… 1 [Tai… 6 [Som…
 2 201 [Yi Lan … 1 [Mal… 5 [Abo… 1 [Bel… 1 [Tai… 3 [FAR… 5 [FAR… 1 [Tai… 6 [Som…
 3 201 [Yi Lan … 2 [Fem… 1 [20-… 2 [Jun… 1 [Tai… 5 [Oth… 7 [Hou… 1 [Tai… 5 [Str…
 4 401 [Hsinchu… 1 [Mal… 3 [40-… 5 [Abo… 2 [Tao… 1 [Hig… 2 [Man… 1 [Tai… 7 [Lea…
 5 401 [Hsinchu… 1 [Mal… 4 [50-… 3 [Sen… 2 [Tao… 4 [WOR… 4 [Lab… 1 [Tai… 6 [Som…
 6 401 [Hsinchu… 2 [Fem… 4 [50-… 2 [Jun… 2 [Tao… 4 [WOR… 4 [Lab… 1 [Tai… 5 [Str…
 7 502 [Miaoli … 2 [Fem… 5 [Abo… 1 [Bel… 2 [Tao… 3 [FAR… 5 [FAR… 1 [Tai… 5 [Str…
 8 502 [Miaoli … 1 [Mal… 3 [40-… 3 [Sen… 2 [Tao… 4 [WOR… 4 [Lab… 2 [Bot… 6 [Som…
 9 502 [Miaoli … 1 [Mal… 4 [50-… 3 [Sen… 2 [Tao… 3 [FAR… 5 [FAR… 1 [Tai… 7 [Lea…
10 701 [Changhu… 1 [Mal… 3 [40-… 3 [Sen… 3 [Tai… 4 [WOR… 4 [Lab… 1 [Tai… 7 [Lea…
# … with 581 more rows, and 45 more variables: PartyID <dbl+lbl>, Tondu <fct>,
#   Tondu3 <dbl+lbl>, nI2 <dbl+lbl>, votetsai <dbl>, green <dbl>,
#   votetsai_nm <dbl>, votetsai_all <dbl>, Independence <dbl>,
#   Unification <dbl>, sq <dbl>, Taiwanese <dbl>, edu <dbl>, female <dbl>,
#   whitecollar <dbl>, lowincome <dbl>, income <dbl>, income_nm <dbl>,
#   age <dbl>, KMT <dbl>, DPP <dbl>, npp <dbl>, noparty <dbl>, pfp <dbl>,
#   South <dbl>, north <dbl>, Minnan_father <dbl>, Mainland_father <dbl>, …
…
    votekmt        : double
    votekmt_nm     : double
    Blue           : double
    Green          : double
    No_Party       : double
    voteblue       : double
    voteblue_nm    : double
    votedpp_1      : double
    votekmt_1      : double
    agegroup       : factor<210db>
    right          : logical
  >
>[4]>
[[1]]
# A tibble: 714 × 56
   District     Sex     Age     Edu     Arear   Career  Career8 Ethnic  Party   
   <dbl+lbl>    <dbl+l> <dbl+l> <dbl+l> <dbl+l> <dbl+l> <dbl+l> <dbl+l> <dbl+lb>
 1 201 [Yi Lan… 2 [Fem… 2 [30-… 5 [Abo… 1 [Tai… 2 [Low… 3 [CLE… 2 [Bot… 25 [Neu…
 2 201 [Yi Lan… 2 [Fem… 1 [20-… 2 [Jun… 1 [Tai… 5 [Oth… 7 [Hou… 1 [Tai…  5 [Str…
 3 201 [Yi Lan… 2 [Fem… 3 [40-… 5 [Abo… 1 [Tai… 4 [WOR… 7 [Hou… 1 [Tai…  3 [Lea…
 4 201 [Yi Lan… 1 [Mal… 3 [40-… 5 [Abo… 1 [Tai… 4 [WOR… 4 [Lab… 1 [Tai… 23 [Lea…
 5 401 [Hsinch… 1 [Mal… 3 [40-… 5 [Abo… 2 [Tao… 1 [Hig… 2 [Man… 1 [Tai…  7 [Lea…
 6 401 [Hsinch… 2 [Fem… 2 [30-… 4 [Col… 2 [Tao… 1 [Hig… 2 [Man… 1 [Tai…  2 [Som…
 7 401 [Hsinch… 2 [Fem… 2 [30-… 3 [Sen… 2 [Tao… 5 [Oth… 8 [Oth… 1 [Tai…  3 [Lea…
 8 401 [Hsinch… 1 [Mal… 1 [20-… 3 [Sen… 2 [Tao… 2 [Low… 3 [CLE… 2 [Bot… 25 [Neu…
 9 401 [Hsinch… 1 [Mal… 3 [40-… 4 [Col… 2 [Tao… 1 [Hig… 2 [Man… 1 [Tai… 25 [Neu…
10 401 [Hsinch… 1 [Mal… 1 [20-… 5 [Abo… 2 [Tao… 4 [WOR… 4 [Lab… 9 [Nor… 25 [Neu…
# … with 704 more rows, and 47 more variables: PartyID <dbl+lbl>, Tondu <fct>,
#   Tondu3 <dbl+lbl>, nI2 <dbl+lbl>, votetsai <dbl>, green <dbl>,
#   votetsai_nm <dbl>, votetsai_all <dbl>, Independence <dbl>,
#   Unification <dbl>, sq <dbl>, Taiwanese <dbl>, edu <dbl>, female <dbl>,
#   whitecollar <dbl>, lowincome <dbl>, income <dbl>, income_nm <dbl>,
#   age <dbl>, KMT <dbl>, DPP <dbl>, npp <dbl>, noparty <dbl>, pfp <dbl>,
#   South <dbl>, north <dbl>, Minnan_father <dbl>, Mainland_father <dbl>, …

[[2]]
# A tibble: 793 × 56
   District     Sex     Age     Edu     Arear   Career  Career8 Ethnic  Party   
   <dbl+lbl>    <dbl+l> <dbl+l> <dbl+l> <dbl+l> <dbl+l> <dbl+l> <dbl+l> <dbl+lb>
 1 201 [Yi Lan… 2 [Fem… 4 [50-… 4 [Col… 1 [Tai… 1 [Hig… 1 [Civ… 1 [Tai… 25 [Neu…
 2 201 [Yi Lan… 1 [Mal… 5 [Abo… 5 [Abo… 1 [Tai… 1 [Hig… 1 [Civ… 2 [Bot…  3 [Lea…
 3 201 [Yi Lan… 1 [Mal… 4 [50-… 2 [Jun… 1 [Tai… 4 [WOR… 4 [Lab… 1 [Tai… 25 [Neu…
 4 201 [Yi Lan… 2 [Fem… 5 [Abo… 2 [Jun… 1 [Tai… 2 [Low… 7 [Hou… 1 [Tai…  6 [Som…
 5 201 [Yi Lan… 2 [Fem… 4 [50-… 5 [Abo… 1 [Tai… 1 [Hig… 2 [Man… 1 [Tai… 24 [Som…
 6 201 [Yi Lan… 2 [Fem… 5 [Abo… 1 [Bel… 1 [Tai… 4 [WOR… 4 [Lab… 1 [Tai… 25 [Neu…
 7 201 [Yi Lan… 1 [Mal… 4 [50-… 1 [Bel… 1 [Tai… 3 [FAR… 5 [FAR… 2 [Bot… 25 [Neu…
 8 201 [Yi Lan… 1 [Mal… 5 [Abo… 1 [Bel… 1 [Tai… 3 [FAR… 5 [FAR… 1 [Tai…  6 [Som…
 9 201 [Yi Lan… 2 [Fem… 4 [50-… 5 [Abo… 1 [Tai… 1 [Hig… 2 [Man… 2 [Bot…  3 [Lea…
10 201 [Yi Lan… 2 [Fem… 4 [50-… 3 [Sen… 1 [Tai… 2 [Low… 3 [CLE… 2 [Bot… 25 [Neu…
# … with 783 more rows, and 47 more variables: PartyID <dbl+lbl>, Tondu <fct>,
#   Tondu3 <dbl+lbl>, nI2 <dbl+lbl>, votetsai <dbl>, green <dbl>,
#   votetsai_nm <dbl>, votetsai_all <dbl>, Independence <dbl>,
#   Unification <dbl>, sq <dbl>, Taiwanese <dbl>, edu <dbl>, female <dbl>,
#   whitecollar <dbl>, lowincome <dbl>, income <dbl>, income_nm <dbl>,
#   age <dbl>, KMT <dbl>, DPP <dbl>, npp <dbl>, noparty <dbl>, pfp <dbl>,
#   South <dbl>, north <dbl>, Minnan_father <dbl>, Mainland_father <dbl>, …

[[3]]
# A tibble: 180 × 56
   District     Sex     Age     Edu     Arear   Career  Career8 Ethnic  Party   
   <dbl+lbl>    <dbl+l> <dbl+l> <dbl+l> <dbl+l> <dbl+l> <dbl+l> <dbl+l> <dbl+lb>
 1 201 [Yi Lan… 2 [Fem… 5 [Abo… 1 [Bel… 1 [Tai… 3 [FAR… 5 [FAR… 9 [Nor… 25 [Neu…
 2 201 [Yi Lan… 1 [Mal… 5 [Abo… 1 [Bel… 1 [Tai… 4 [WOR… 4 [Lab… 2 [Bot… 25 [Neu…
 3 201 [Yi Lan… 2 [Fem… 5 [Abo… 1 [Bel… 1 [Tai… 5 [Oth… 7 [Hou… 2 [Bot… 25 [Neu…
 4 201 [Yi Lan… 2 [Fem… 5 [Abo… 1 [Bel… 1 [Tai… 5 [Oth… 7 [Hou… 9 [Nor… 25 [Neu…
 5 401 [Hsinch… 1 [Mal… 5 [Abo… 1 [Bel… 2 [Tao… 3 [FAR… 5 [FAR… 1 [Tai…  1 [Str…
 6 502 [Miaoli… 2 [Fem… 5 [Abo… 1 [Bel… 2 [Tao… 3 [FAR… 5 [FAR… 1 [Tai…  5 [Str…
 7 701 [Changh… 1 [Mal… 5 [Abo… 1 [Bel… 3 [Tai… 4 [WOR… 4 [Lab… 1 [Tai… 25 [Neu…
 8 701 [Changh… 1 [Mal… 5 [Abo… 1 [Bel… 3 [Tai… 1 [Hig… 2 [Man… 2 [Bot… 25 [Neu…
 9 704 [Changh… 2 [Fem… 5 [Abo… 1 [Bel… 3 [Tai… 5 [Oth… 7 [Hou… 1 [Tai…  3 [Lea…
10 703 [Changh… 2 [Fem… 5 [Abo… 1 [Bel… 3 [Tai… 4 [WOR… 4 [Lab… 1 [Tai… 25 [Neu…
# … with 170 more rows, and 47 more variables: PartyID <dbl+lbl>, Tondu <fct>,
#   Tondu3 <dbl+lbl>, nI2 <dbl+lbl>, votetsai <dbl>, green <dbl>,
#   votetsai_nm <dbl>, votetsai_all <dbl>, Independence <dbl>,
#   Unification <dbl>, sq <dbl>, Taiwanese <dbl>, edu <dbl>, female <dbl>,
#   whitecollar <dbl>, lowincome <dbl>, income <dbl>, income_nm <dbl>,
#   age <dbl>, KMT <dbl>, DPP <dbl>, npp <dbl>, noparty <dbl>, pfp <dbl>,
#   South <dbl>, north <dbl>, Minnan_father <dbl>, Mainland_father <dbl>, …
…
    votekmt        : double
    votekmt_nm     : double
    Blue           : double
    Green          : double
    No_Party       : double
    voteblue       : double
    voteblue_nm    : double
    votedpp_1      : double
    votekmt_1      : double
    incomegroup    : factor<d71c4>
    right          : logical
  >
>[2]>
[[1]]
# A tibble: 716 × 56
   District     Sex     Age     Edu     Arear   Career  Career8 Ethnic  Party   
   <dbl+lbl>    <dbl+l> <dbl+l> <dbl+l> <dbl+l> <dbl+l> <dbl+l> <dbl+l> <dbl+lb>
 1 201 [Yi Lan… 1 [Mal… 4 [50-… 2 [Jun… 1 [Tai… 4 [WOR… 4 [Lab… 1 [Tai… 25 [Neu…
 2 201 [Yi Lan… 1 [Mal… 5 [Abo… 1 [Bel… 1 [Tai… 4 [WOR… 4 [Lab… 2 [Bot… 25 [Neu…
 3 201 [Yi Lan… 2 [Fem… 5 [Abo… 1 [Bel… 1 [Tai… 4 [WOR… 4 [Lab… 1 [Tai… 25 [Neu…
 4 201 [Yi Lan… 1 [Mal… 5 [Abo… 1 [Bel… 1 [Tai… 3 [FAR… 5 [FAR… 1 [Tai…  6 [Som…
 5 201 [Yi Lan… 2 [Fem… 4 [50-… 5 [Abo… 1 [Tai… 1 [Hig… 2 [Man… 2 [Bot…  3 [Lea…
 6 201 [Yi Lan… 1 [Mal… 3 [40-… 5 [Abo… 1 [Tai… 4 [WOR… 4 [Lab… 1 [Tai… 23 [Lea…
 7 401 [Hsinch… 1 [Mal… 1 [20-… 3 [Sen… 2 [Tao… 2 [Low… 3 [CLE… 2 [Bot… 25 [Neu…
 8 401 [Hsinch… 1 [Mal… 5 [Abo… 1 [Bel… 2 [Tao… 3 [FAR… 5 [FAR… 1 [Tai…  1 [Str…
 9 401 [Hsinch… 1 [Mal… 5 [Abo… 3 [Sen… 2 [Tao… 1 [Hig… 1 [Civ… 2 [Bot… 10 [Som…
10 401 [Hsinch… 1 [Mal… 4 [50-… 1 [Bel… 2 [Tao… 1 [Hig… 2 [Man… 3 [Chi…  2 [Som…
# … with 706 more rows, and 47 more variables: PartyID <dbl+lbl>, Tondu <fct>,
#   Tondu3 <dbl+lbl>, nI2 <dbl+lbl>, votetsai <dbl>, green <dbl>,
#   votetsai_nm <dbl>, votetsai_all <dbl>, Independence <dbl>,
#   Unification <dbl>, sq <dbl>, Taiwanese <dbl>, edu <dbl>, female <dbl>,
#   whitecollar <dbl>, lowincome <dbl>, income <dbl>, income_nm <dbl>,
#   age <dbl>, KMT <dbl>, DPP <dbl>, npp <dbl>, noparty <dbl>, pfp <dbl>,
#   South <dbl>, north <dbl>, Minnan_father <dbl>, Mainland_father <dbl>, …

[[2]]
# A tibble: 974 × 56
   District     Sex     Age     Edu     Arear   Career  Career8 Ethnic  Party   
   <dbl+lbl>    <dbl+l> <dbl+l> <dbl+l> <dbl+l> <dbl+l> <dbl+l> <dbl+l> <dbl+lb>
 1 201 [Yi Lan… 2 [Fem… 4 [50-… 4 [Col… 1 [Tai… 1 [Hig… 1 [Civ… 1 [Tai… 25 [Neu…
 2 201 [Yi Lan… 2 [Fem… 2 [30-… 5 [Abo… 1 [Tai… 2 [Low… 3 [CLE… 2 [Bot… 25 [Neu…
 3 201 [Yi Lan… 1 [Mal… 5 [Abo… 5 [Abo… 1 [Tai… 1 [Hig… 1 [Civ… 2 [Bot…  3 [Lea…
 4 201 [Yi Lan… 2 [Fem… 5 [Abo… 1 [Bel… 1 [Tai… 3 [FAR… 5 [FAR… 9 [Nor… 25 [Neu…
 5 201 [Yi Lan… 2 [Fem… 5 [Abo… 2 [Jun… 1 [Tai… 2 [Low… 7 [Hou… 1 [Tai…  6 [Som…
 6 201 [Yi Lan… 2 [Fem… 4 [50-… 5 [Abo… 1 [Tai… 1 [Hig… 2 [Man… 1 [Tai… 24 [Som…
 7 201 [Yi Lan… 1 [Mal… 4 [50-… 1 [Bel… 1 [Tai… 3 [FAR… 5 [FAR… 2 [Bot… 25 [Neu…
 8 201 [Yi Lan… 2 [Fem… 1 [20-… 2 [Jun… 1 [Tai… 5 [Oth… 7 [Hou… 1 [Tai…  5 [Str…
 9 201 [Yi Lan… 2 [Fem… 5 [Abo… 1 [Bel… 1 [Tai… 5 [Oth… 7 [Hou… 2 [Bot… 25 [Neu…
10 201 [Yi Lan… 2 [Fem… 3 [40-… 5 [Abo… 1 [Tai… 4 [WOR… 7 [Hou… 1 [Tai…  3 [Lea…
# … with 964 more rows, and 47 more variables: PartyID <dbl+lbl>, Tondu <fct>,
#   Tondu3 <dbl+lbl>, nI2 <dbl+lbl>, votetsai <dbl>, green <dbl>,
#   votetsai_nm <dbl>, votetsai_all <dbl>, Independence <dbl>,
#   Unification <dbl>, sq <dbl>, Taiwanese <dbl>, edu <dbl>, female <dbl>,
#   whitecollar <dbl>, lowincome <dbl>, income <dbl>, income_nm <dbl>,
#   age <dbl>, KMT <dbl>, DPP <dbl>, npp <dbl>, noparty <dbl>, pfp <dbl>,
#   South <dbl>, north <dbl>, Minnan_father <dbl>, Mainland_father <dbl>, …
…
    Govt_dont_care : double
    highincome     : double
    votekmt        : double
    votekmt_nm     : double
    Blue           : double
    Green          : double
    No_Party       : double
    voteblue       : double
    voteblue_nm    : double
    votedpp_1      : double
    votekmt_1      : double
  >
>[6]>
[[1]]
# A tibble: 322 × 54
   District     Sex     Age     Edu     Arear   Career  Career8 Ethnic  Party   
   <dbl+lbl>    <dbl+l> <dbl+l> <dbl+l> <dbl+l> <dbl+l> <dbl+l> <dbl+l> <dbl+lb>
 1 201 [Yi Lan… 2 [Fem… 5 [Abo… 1 [Bel… 1 [Tai… 3 [FAR… 5 [FAR… 9 [Nor… 25 [Neu…
 2 201 [Yi Lan… 1 [Mal… 5 [Abo… 1 [Bel… 1 [Tai… 4 [WOR… 4 [Lab… 2 [Bot… 25 [Neu…
 3 201 [Yi Lan… 2 [Fem… 5 [Abo… 1 [Bel… 1 [Tai… 4 [WOR… 4 [Lab… 1 [Tai… 25 [Neu…
 4 201 [Yi Lan… 1 [Mal… 4 [50-… 1 [Bel… 1 [Tai… 3 [FAR… 5 [FAR… 2 [Bot… 25 [Neu…
 5 201 [Yi Lan… 1 [Mal… 5 [Abo… 1 [Bel… 1 [Tai… 3 [FAR… 5 [FAR… 1 [Tai…  6 [Som…
 6 201 [Yi Lan… 2 [Fem… 5 [Abo… 1 [Bel… 1 [Tai… 5 [Oth… 7 [Hou… 2 [Bot… 25 [Neu…
 7 201 [Yi Lan… 2 [Fem… 5 [Abo… 1 [Bel… 1 [Tai… 5 [Oth… 7 [Hou… 9 [Nor… 25 [Neu…
 8 401 [Hsinch… 1 [Mal… 5 [Abo… 1 [Bel… 2 [Tao… 3 [FAR… 5 [FAR… 1 [Tai…  1 [Str…
 9 401 [Hsinch… 1 [Mal… 4 [50-… 1 [Bel… 2 [Tao… 1 [Hig… 2 [Man… 3 [Chi…  2 [Som…
10 401 [Hsinch… 2 [Fem… 2 [30-… 1 [Bel… 2 [Tao… 4 [WOR… 4 [Lab… 2 [Bot… 25 [Neu…
# … with 312 more rows, and 45 more variables: PartyID <dbl+lbl>, Tondu <fct>,
#   Tondu3 <dbl+lbl>, nI2 <dbl+lbl>, votetsai <dbl>, green <dbl>,
#   votetsai_nm <dbl>, votetsai_all <dbl>, Independence <dbl>,
#   Unification <dbl>, sq <dbl>, Taiwanese <dbl>, edu <dbl>, female <dbl>,
#   whitecollar <dbl>, lowincome <dbl>, income <dbl>, income_nm <dbl>,
#   age <dbl>, KMT <dbl>, DPP <dbl>, npp <dbl>, noparty <dbl>, pfp <dbl>,
#   South <dbl>, north <dbl>, Minnan_father <dbl>, Mainland_father <dbl>, …

[[2]]
# A tibble: 161 × 54
   District     Sex     Age     Edu     Arear   Career  Career8 Ethnic  Party   
   <dbl+lbl>    <dbl+l> <dbl+l> <dbl+l> <dbl+l> <dbl+l> <dbl+l> <dbl+l> <dbl+lb>
 1  201 [Yi La… 1 [Mal… 4 [50-… 2 [Jun… 1 [Tai… 4 [WOR… 4 [Lab… 1 [Tai… 25 [Neu…
 2  201 [Yi La… 2 [Fem… 5 [Abo… 2 [Jun… 1 [Tai… 2 [Low… 7 [Hou… 1 [Tai…  6 [Som…
 3  201 [Yi La… 2 [Fem… 1 [20-… 2 [Jun… 1 [Tai… 5 [Oth… 7 [Hou… 1 [Tai…  5 [Str…
 4  401 [Hsinc… 2 [Fem… 4 [50-… 2 [Jun… 2 [Tao… 4 [WOR… 4 [Lab… 1 [Tai…  5 [Str…
 5  502 [Miaol… 2 [Fem… 4 [50-… 2 [Jun… 2 [Tao… 5 [Oth… 7 [Hou… 2 [Bot…  2 [Som…
 6  701 [Chang… 2 [Fem… 4 [50-… 2 [Jun… 3 [Tai… 5 [Oth… 7 [Hou… 1 [Tai…  6 [Som…
 7  704 [Chang… 2 [Fem… 5 [Abo… 2 [Jun… 3 [Tai… 3 [FAR… 5 [FAR… 1 [Tai… 25 [Neu…
 8  901 [Yunli… 2 [Fem… 5 [Abo… 2 [Jun… 4 [Yun… 3 [FAR… 5 [FAR… 1 [Tai…  7 [Lea…
 9  901 [Yunli… 1 [Mal… 4 [50-… 2 [Jun… 4 [Yun… 4 [WOR… 4 [Lab… 1 [Tai…  5 [Str…
10 1002 [Chiay… 1 [Mal… 3 [40-… 2 [Jun… 4 [Yun… 4 [WOR… 4 [Lab… 1 [Tai… 25 [Neu…
# … with 151 more rows, and 45 more variables: PartyID <dbl+lbl>, Tondu <fct>,
#   Tondu3 <dbl+lbl>, nI2 <dbl+lbl>, votetsai <dbl>, green <dbl>,
#   votetsai_nm <dbl>, votetsai_all <dbl>, Independence <dbl>,
#   Unification <dbl>, sq <dbl>, Taiwanese <dbl>, edu <dbl>, female <dbl>,
#   whitecollar <dbl>, lowincome <dbl>, income <dbl>, income_nm <dbl>,
#   age <dbl>, KMT <dbl>, DPP <dbl>, npp <dbl>, noparty <dbl>, pfp <dbl>,
#   South <dbl>, north <dbl>, Minnan_father <dbl>, Mainland_father <dbl>, …

[[3]]
# A tibble: 449 × 54
   District     Sex     Age     Edu     Arear   Career  Career8 Ethnic  Party   
   <dbl+lbl>    <dbl+l> <dbl+l> <dbl+l> <dbl+l> <dbl+l> <dbl+l> <dbl+l> <dbl+lb>
 1 201 [Yi Lan… 2 [Fem… 4 [50-… 3 [Sen… 1 [Tai… 2 [Low… 3 [CLE… 2 [Bot… 25 [Neu…
 2 401 [Hsinch… 2 [Fem… 2 [30-… 3 [Sen… 2 [Tao… 5 [Oth… 8 [Oth… 1 [Tai…  3 [Lea…
 3 401 [Hsinch… 1 [Mal… 1 [20-… 3 [Sen… 2 [Tao… 2 [Low… 3 [CLE… 2 [Bot… 25 [Neu…
 4 401 [Hsinch… 2 [Fem… 5 [Abo… 3 [Sen… 2 [Tao… 2 [Low… 3 [CLE… 2 [Bot…  2 [Som…
 5 401 [Hsinch… 1 [Mal… 5 [Abo… 3 [Sen… 2 [Tao… 1 [Hig… 1 [Civ… 2 [Bot… 10 [Som…
 6 401 [Hsinch… 1 [Mal… 3 [40-… 3 [Sen… 2 [Tao… 5 [Oth… 7 [Hou… 2 [Bot…  2 [Som…
 7 401 [Hsinch… 1 [Mal… 4 [50-… 3 [Sen… 2 [Tao… 4 [WOR… 4 [Lab… 1 [Tai…  6 [Som…
 8 502 [Miaoli… 1 [Mal… 4 [50-… 3 [Sen… 2 [Tao… 1 [Hig… 1 [Civ… 2 [Bot…  4 [Som…
 9 502 [Miaoli… 2 [Fem… 4 [50-… 3 [Sen… 2 [Tao… 4 [WOR… 4 [Lab… 2 [Bot…  1 [Str…
10 502 [Miaoli… 1 [Mal… 2 [30-… 3 [Sen… 2 [Tao… 1 [Hig… 2 [Man… 2 [Bot…  3 [Lea…
# … with 439 more rows, and 45 more variables: PartyID <dbl+lbl>, Tondu <fct>,
#   Tondu3 <dbl+lbl>, nI2 <dbl+lbl>, votetsai <dbl>, green <dbl>,
#   votetsai_nm <dbl>, votetsai_all <dbl>, Independence <dbl>,
#   Unification <dbl>, sq <dbl>, Taiwanese <dbl>, edu <dbl>, female <dbl>,
#   whitecollar <dbl>, lowincome <dbl>, income <dbl>, income_nm <dbl>,
#   age <dbl>, KMT <dbl>, DPP <dbl>, npp <dbl>, noparty <dbl>, pfp <dbl>,
#   South <dbl>, north <dbl>, Minnan_father <dbl>, Mainland_father <dbl>, …
…
